Verify_multiler_TLM_FIFO/sim/transcript
# do run.do
# --- Compiling RTL ---
# QuestaSim-64 vlog 10.7c Compiler 2018.08 Aug 18 2018
# Start time: 11:10:26 on Dec 09,2025
# vlog -sv ../tb/mul_if.sv ../mul.v 
# -- Compiling interface mul_if
# -- Compiling module mul
# 
# Top level modules:
# 	mul
# End time: 11:10:26 on Dec 09,2025, Elapsed time: 0:00:00
# Errors: 0, Warnings: 0
# --- Compiling UVC Package ---
# QuestaSim-64 vlog 10.7c Compiler 2018.08 Aug 18 2018
# Start time: 11:10:26 on Dec 09,2025
# vlog -sv "+incdir+../uvc/env" "+incdir+../uvc/seq" "+incdir+../uvc/tests" ../uvc/env/mul_pkg.sv 
# -- Compiling package mul_pkg
# -- Importing package mtiUvm.uvm_pkg (uvm-1.1d Built-in)
# ** Note: (vlog-2286) ../uvc/env/mul_pkg.sv(3): Using implicit +incdir+D:/questasim_b_install/uvm-1.1d/../verilog_src/uvm-1.1d/src from import uvm_pkg
# 
# Top level modules:
# 	--none--
# End time: 11:10:27 on Dec 09,2025, Elapsed time: 0:00:01
# Errors: 0, Warnings: 0
# --- Compiling Tests Package ---
# QuestaSim-64 vlog 10.7c Compiler 2018.08 Aug 18 2018
# Start time: 11:10:27 on Dec 09,2025
# vlog -sv "+incdir+../uvc/env" "+incdir+../uvc/seq" "+incdir+../uvc/tests" ../uvc/tests/base_test.sv ../uvc/tests/mul_test.sv 
# ** Note: (vlog-2286) ../uvc/tests/base_test.sv(1): Using implicit +incdir+D:/questasim_b_install/uvm-1.1d/../verilog_src/uvm-1.1d/src from import uvm_pkg
# 
# Top level modules:
# 	--none--
# End time: 11:10:27 on Dec 09,2025, Elapsed time: 0:00:00
# Errors: 0, Warnings: 0
# --- Compiling Top Module ---
# QuestaSim-64 vlog 10.7c Compiler 2018.08 Aug 18 2018
# Start time: 11:10:27 on Dec 09,2025
# vlog -sv ../tb/top.sv 
# ** Note: (vlog-2286) ../tb/top.sv(3): Using implicit +incdir+D:/questasim_b_install/uvm-1.1d/../verilog_src/uvm-1.1d/src from import uvm_pkg
# -- Compiling package top_sv_unit
# -- Importing package mtiUvm.uvm_pkg (uvm-1.1d Built-in)
# -- Importing package mul_pkg
# -- Compiling module top
# 
# Top level modules:
# 	top
# End time: 11:10:28 on Dec 09,2025, Elapsed time: 0:00:01
# Errors: 0, Warnings: 0
# --- Compilation successful! ---
# --- Starting Simulation ---
# vsim top "+UVM_TESTNAME=mul_test" 
# Start time: 11:10:28 on Dec 09,2025
# ** Note: (vsim-3812) Design is being optimized...
# //  Questa Sim-64
# //  Version 10.7c win64 Aug 18 2018
# //
# //  Copyright 1991-2018 Mentor Graphics Corporation
# //  All Rights Reserved.
# //
# //  QuestaSim and its associated documentation contain trade
# //  secrets and commercial or financial information that are the property of
# //  Mentor Graphics Corporation and are privileged, confidential,
# //  and exempt from disclosure under the Freedom of Information Act,
# //  5 U.S.C. Section 552. Furthermore, this information
# //  is prohibited from disclosure under the Trade Secrets Act,
# //  18 U.S.C. Section 1905.
# //
# Loading sv_std.std
# Loading work.mul_if(fast)
# Loading mtiUvm.uvm_pkg
# Loading work.mul_pkg(fast)
# Loading work.top_sv_unit(fast)
# Loading work.top(fast)
# Loading mtiUvm.questa_uvm_pkg(fast)
# Loading D:/questasim_b_install/uvm-1.1d\win64\uvm_dpi.dll
# ----------------------------------------------------------------
# UVM-1.1d
# (C) 2007-2013 Mentor Graphics Corporation
# (C) 2007-2013 Cadence Design Systems, Inc.
# (C) 2006-2013 Synopsys, Inc.
# (C) 2011-2013 Cypress Semiconductor Corp.
# ----------------------------------------------------------------
# 
#   ***********       IMPORTANT RELEASE NOTES         ************
# 
#   You are using a version of the UVM library that has been compiled
#   with `UVM_NO_DEPRECATED undefined.
#   See http://www.eda.org/svdb/view.php?id=3313 for more details.
# 
#   You are using a version of the UVM library that has been compiled
#   with `UVM_OBJECT_MUST_HAVE_CONSTRUCTOR undefined.
#   See http://www.eda.org/svdb/view.php?id=3770 for more details.
# 
#       (Specify +UVM_NO_RELNOTES to turn off this notice)
# 
# UVM_INFO verilog_src/questa_uvm_pkg-1.2/src/questa_uvm_pkg.sv(215) @ 0: reporter [Questa UVM] QUESTA_UVM-1.2.3
# UVM_INFO verilog_src/questa_uvm_pkg-1.2/src/questa_uvm_pkg.sv(216) @ 0: reporter [Questa UVM]  questa_uvm::init(+struct)
# UVM_INFO @ 0: reporter [RNTST] Running test mul_test...
# UVM_INFO @ 0: reporter [UVMTOP] UVM testbench topology:
# ------------------------------------------------------------------
# Name                       Type                        Size  Value
# ------------------------------------------------------------------
# uvm_test_top               mul_test                    -     @471 
#   env                      mul_env                     -     @478 
#     agent                  mul_agent                   -     @485 
#       driver               mul_driver                  -     @594 
#         rsp_port           uvm_analysis_port           -     @609 
#         seq_item_port      uvm_seq_item_pull_port      -     @601 
#       golden               mul_golden                  -     @632 
#         item_golden_port   uvm_analysis_port           -     @639 
#       monitor              mul_monitor                 -     @617 
#         item_send_port     uvm_analysis_port           -     @624 
#       seqr                 uvm_sequencer               -     @647 
#         rsp_export         uvm_analysis_export         -     @654 
#         seq_item_export    uvm_seq_item_pull_imp       -     @748 
#         arbitration_queue  array                       0     -    
#         lock_queue         array                       0     -    
#         num_last_reqs      integral                    32    'd1  
#         num_last_rsps      integral                    32    'd1  
#     scoreboard             mul_scoreboard              -     @492 
#       item_golden_imp      uvm_tlm_analysis_fifo #(T)  -     @546 
#         analysis_export    uvm_analysis_imp            -     @585 
#         get_ap             uvm_analysis_port           -     @577 
#         get_peek_export    uvm_get_peek_imp            -     @561 
#         put_ap             uvm_analysis_port           -     @569 
#         put_export         uvm_put_imp                 -     @553 
#       item_got_imp         uvm_tlm_analysis_fifo #(T)  -     @499 
#         analysis_export    uvm_analysis_imp            -     @538 
#         get_ap             uvm_analysis_port           -     @530 
#         get_peek_export    uvm_get_peek_imp            -     @514 
#         put_ap             uvm_analysis_port           -     @522 
#         put_export         uvm_put_imp                 -     @506 
# ------------------------------------------------------------------
# 
# UVM_INFO ../uvc/env/./mul_scoreboard.sv(35) @ 5000: uvm_test_top.env.scoreboard [SCO] Test Passed -> a = 0, b = 0, y = 0 
#  ___________________________________________________________----------------------------_a_golden = 0, b_golden = 0, y_golden = 0
# UVM_INFO ../uvc/env/./mul_scoreboard.sv(35) @ 15000: uvm_test_top.env.scoreboard [SCO] Test Passed -> a = 2, b = 0, y = 0 
#  ___________________________________________________________----------------------------_a_golden = 2, b_golden = 0, y_golden = 0
# UVM_INFO ../uvc/env/./mul_scoreboard.sv(35) @ 25000: uvm_test_top.env.scoreboard [SCO] Test Passed -> a = 2, b = 1, y = 2 
#  ___________________________________________________________----------------------------_a_golden = 2, b_golden = 1, y_golden = 2
# UVM_INFO ../uvc/env/./mul_scoreboard.sv(35) @ 35000: uvm_test_top.env.scoreboard [SCO] Test Passed -> a = 2, b = 5, y = 10 
#  ___________________________________________________________----------------------------_a_golden = 2, b_golden = 5, y_golden = 10
# UVM_INFO ../uvc/env/./mul_scoreboard.sv(35) @ 45000: uvm_test_top.env.scoreboard [SCO] Test Passed -> a = 2, b = 0, y = 0 
#  ___________________________________________________________----------------------------_a_golden = 2, b_golden = 0, y_golden = 0
# UVM_INFO ../uvc/env/./mul_scoreboard.sv(35) @ 55000: uvm_test_top.env.scoreboard [SCO] Test Passed -> a = 2, b = 4, y = 8 
#  ___________________________________________________________----------------------------_a_golden = 2, b_golden = 4, y_golden = 8
# UVM_INFO ../uvc/env/./mul_scoreboard.sv(35) @ 65000: uvm_test_top.env.scoreboard [SCO] Test Passed -> a = 2, b = 6, y = 12 
#  ___________________________________________________________----------------------------_a_golden = 2, b_golden = 6, y_golden = 12
# UVM_INFO ../uvc/env/./mul_scoreboard.sv(35) @ 75000: uvm_test_top.env.scoreboard [SCO] Test Passed -> a = 2, b = 15, y = 30 
#  ___________________________________________________________----------------------------_a_golden = 2, b_golden = 15, y_golden = 30
# UVM_INFO ../uvc/env/./mul_scoreboard.sv(35) @ 85000: uvm_test_top.env.scoreboard [SCO] Test Passed -> a = 2, b = 5, y = 10 
#  ___________________________________________________________----------------------------_a_golden = 2, b_golden = 5, y_golden = 10
# UVM_INFO ../uvc/env/./mul_scoreboard.sv(35) @ 95000: uvm_test_top.env.scoreboard [SCO] Test Passed -> a = 2, b = 7, y = 14 
#  ___________________________________________________________----------------------------_a_golden = 2, b_golden = 7, y_golden = 14
# UVM_INFO ../uvc/env/./mul_scoreboard.sv(35) @ 105000: uvm_test_top.env.scoreboard [SCO] Test Passed -> a = 2, b = 14, y = 28 
#  ___________________________________________________________----------------------------_a_golden = 2, b_golden = 14, y_golden = 28
# UVM_INFO ../uvc/env/./mul_scoreboard.sv(35) @ 115000: uvm_test_top.env.scoreboard [SCO] Test Passed -> a = 2, b = 12, y = 24 
#  ___________________________________________________________----------------------------_a_golden = 2, b_golden = 12, y_golden = 24
# UVM_INFO ../uvc/env/./mul_scoreboard.sv(35) @ 125000: uvm_test_top.env.scoreboard [SCO] Test Passed -> a = 2, b = 11, y = 22 
#  ___________________________________________________________----------------------------_a_golden = 2, b_golden = 11, y_golden = 22
# UVM_INFO ../uvc/env/./mul_scoreboard.sv(35) @ 135000: uvm_test_top.env.scoreboard [SCO] Test Passed -> a = 2, b = 0, y = 0 
#  ___________________________________________________________----------------------------_a_golden = 2, b_golden = 0, y_golden = 0
# UVM_INFO ../uvc/env/./mul_scoreboard.sv(35) @ 145000: uvm_test_top.env.scoreboard [SCO] Test Passed -> a = 2, b = 7, y = 14 
#  ___________________________________________________________----------------------------_a_golden = 2, b_golden = 7, y_golden = 14
# UVM_INFO ../uvc/env/./mul_scoreboard.sv(35) @ 155000: uvm_test_top.env.scoreboard [SCO] Test Passed -> a = 2, b = 15, y = 30 
#  ___________________________________________________________----------------------------_a_golden = 2, b_golden = 15, y_golden = 30
# UVM_INFO ../uvc/env/./mul_scoreboard.sv(35) @ 165000: uvm_test_top.env.scoreboard [SCO] Test Passed -> a = 2, b = 0, y = 0 
#  ___________________________________________________________----------------------------_a_golden = 2, b_golden = 0, y_golden = 0
# UVM_INFO ../uvc/env/./mul_scoreboard.sv(35) @ 175000: uvm_test_top.env.scoreboard [SCO] Test Passed -> a = 2, b = 5, y = 10 
#  ___________________________________________________________----------------------------_a_golden = 2, b_golden = 5, y_golden = 10
# UVM_INFO ../uvc/env/./mul_scoreboard.sv(35) @ 185000: uvm_test_top.env.scoreboard [SCO] Test Passed -> a = 2, b = 7, y = 14 
#  ___________________________________________________________----------------------------_a_golden = 2, b_golden = 7, y_golden = 14
# UVM_INFO ../uvc/env/../seq/mul_seq.sv(24) @ 195000: uvm_test_top.env.agent.seqr@@seq [SEQ] mul_seq complete
# UVM_INFO ../uvc/env/./mul_scoreboard.sv(35) @ 195000: uvm_test_top.env.scoreboard [SCO] Test Passed -> a = 2, b = 5, y = 10 
#  ___________________________________________________________----------------------------_a_golden = 2, b_golden = 5, y_golden = 10
# UVM_INFO verilog_src/uvm-1.1d/src/base/uvm_objection.svh(1267) @ 195000: reporter [TEST_DONE] 'run' phase is ready to proceed to the 'extract' phase
# UVM_INFO ../uvc/env/../tests/base_test.sv(50) @ 195000: uvm_test_top [mul_test] ** TEST PASSED **
# 
# --- UVM Report Summary ---
# 
# ** Report counts by severity
# UVM_INFO :   27
# UVM_WARNING :    0
# UVM_ERROR :    0
# UVM_FATAL :    0
# ** Report counts by id
# [Questa UVM]     2
# [RNTST]     1
# [SCO]    20
# [SEQ]     1
# [TEST_DONE]     1
# [UVMTOP]     1
# [mul_test]     1
# ** Note: $finish    : D:/questasim_b_install/win64/../verilog_src/uvm-1.1d/src/base/uvm_root.svh(430)
#    Time: 195 ns  Iteration: 61  Instance: /top
# End time: 11:10:34 on Dec 09,2025, Elapsed time: 0:00:06
# Errors: 0, Warnings: 0
